{
"type": "FeatureCollection",
"crs": { "type": "name", "properties": { "name": "urn:ogc:def:crs:OGC:1.3:CRS84" } },
                                                                                
"features": [
{ "type": "Feature", "properties": { "Map": "1920_4", "Label": "MAY", "Phrase": "MAY", "Id": 1 }, "bbox": [ 360.59210526315803, -1296.1421052631579, 1291.6657894736845, -1176.7736842105264 ], "geometry": { "type": "Polygon", "coordinates": [ [ [ 360.59210526315803, -1176.7736842105264 ], [ 360.59210526315803, -1296.1421052631579 ], [ 1291.6657894736845, -1296.1421052631579 ], [ 1291.6657894736845, -1176.7736842105264 ], [ 360.59210526315803, -1176.7736842105264 ] ] ] } },
{ "type": "Feature", "properties": { "Map": "1920_4", "Label": "MAY", "Phrase": "MAY", "Id": 1 }, "bbox": [ 360.59210526315803, -1296.1421052631579, 1291.6657894736845, -1176.7736842105264 ], "geometry": { "type": "Polygon", "coordinates": [ [ [ 360.59210526315803, -1176.7736842105264 ], [ 360.59210526315803, -1296.1421052631579 ], [ 1291.6657894736845, -1296.1421052631579 ], [ 1291.6657894736845, -1176.7736842105264 ], [ 360.59210526315803, -1176.7736842105264 ] ] ] } },
{ "type": "Feature", "properties": { "Map": "1920_4", "Label": "Firth", "Phrase": "Firth View", "Id": 1 }, "bbox": [ 372.5289473684212, -955.94210526315794, 450.11842105263179, -908.19473684210527 ], "geometry": { "type": "Polygon", "coordinates": [ [ [ 372.5289473684212, -908.19473684210527 ], [ 372.5289473684212, -955.94210526315794 ], [ 450.11842105263179, -955.94210526315794 ], [ 450.11842105263179, -908.19473684210527 ], [ 372.5289473684212, -908.19473684210527 ] ] ] } },
{ "type": "Feature", "properties": { "Map": "1920_4", "Label": "Firth", "Phrase": "Firth View", "Id": 1 }, "bbox": [ 372.5289473684212, -955.94210526315794, 450.11842105263179, -908.19473684210527 ], "geometry": { "type": "Polygon", "coordinates": [ [ [ 372.5289473684212, -908.19473684210527 ], [ 372.5289473684212, -955.94210526315794 ], [ 450.11842105263179, -955.94210526315794 ], [ 450.11842105263179, -908.19473684210527 ], [ 372.5289473684212, -908.19473684210527 ] ] ] } },
{ "type": "Feature", "properties": { "Map": "1920_4", "Label": "View", "Phrase": "Firth View", "Id": 2 }, "bbox": [ 468.02368421052654, -955.94210526315794, 533.67631578947396, -902.22631578947369 ], "geometry": { "type": "Polygon", "coordinates": [ [ [ 468.02368421052654, -902.22631578947369 ], [ 468.02368421052654, -955.94210526315794 ], [ 533.67631578947396, -955.94210526315794 ], [ 533.67631578947396, -902.22631578947369 ], [ 468.02368421052654, -902.22631578947369 ] ] ] } },
{ "type": "Feature", "properties": { "Map": "1920_4", "Label": "View", "Phrase": "Firth View", "Id": 2 }, "bbox": [ 468.02368421052654, -955.94210526315794, 533.67631578947396, -902.22631578947369 ], "geometry": { "type": "Polygon", "coordinates": [ [ [ 468.02368421052654, -902.22631578947369 ], [ 468.02368421052654, -955.94210526315794 ], [ 533.67631578947396, -955.94210526315794 ], [ 533.67631578947396, -902.22631578947369 ], [ 468.02368421052654, -902.22631578947369 ] ] ] } },
{ "type": "Feature", "properties": { "Map": "1920_4", "Label": "The ", "Phrase": "The Chase", "Id": 1 }, "bbox": [ 47.250000000000114, -168.11052631578934, 92.013157894736992, -57.694736842105101 ], "geometry": { "type": "Polygon", "coordinates": [ [ [ 47.250000000000114, -57.694736842105101 ], [ 47.250000000000114, -168.11052631578934 ], [ 92.013157894736992, -168.11052631578934 ], [ 92.013157894736992, -57.694736842105101 ], [ 47.250000000000114, -57.694736842105101 ] ] ] } },
{ "type": "Feature", "properties": { "Map": "1920_4", "Label": "The ", "Phrase": "The Chase", "Id": 1 }, "bbox": [ 47.250000000000114, -168.11052631578934, 92.013157894736992, -57.694736842105101 ], "geometry": { "type": "Polygon", "coordinates": [ [ [ 47.250000000000114, -57.694736842105101 ], [ 47.250000000000114, -168.11052631578934 ], [ 92.013157894736992, -168.11052631578934 ], [ 92.013157894736992, -57.694736842105101 ], [ 47.250000000000114, -57.694736842105101 ] ] ] } },
{ "type": "Feature", "properties": { "Map": "1920_4", "Label": "Chase", "Phrase": "The Chase", "Id": 2 }, "bbox": [ 92.013157894736992, -356.11578947368412, 139.76052631578966, -197.95263157894723 ], "geometry": { "type": "Polygon", "coordinates": [ [ [ 92.013157894736992, -197.95263157894723 ], [ 92.013157894736992, -356.11578947368412 ], [ 139.76052631578966, -356.11578947368412 ], [ 139.76052631578966, -197.95263157894723 ], [ 92.013157894736992, -197.95263157894723 ] ] ] } },
{ "type": "Feature", "properties": { "Map": "1920_4", "Label": "Chase", "Phrase": "The Chase", "Id": 2 }, "bbox": [ 92.013157894736992, -356.11578947368412, 139.76052631578966, -197.95263157894723 ], "geometry": { "type": "Polygon", "coordinates": [ [ [ 92.013157894736992, -197.95263157894723 ], [ 92.013157894736992, -356.11578947368412 ], [ 139.76052631578966, -356.11578947368412 ], [ 139.76052631578966, -197.95263157894723 ], [ 92.013157894736992, -197.95263157894723 ] ] ] } },
{ "type": "Feature", "properties": { "Map": "1920_4", "Label": "Windpump", "Phrase": "Windpump", "Id": 1 }, "bbox": [ 605.29736842105297, -553.07368421052627, 772.41315789473708, -520.24736842105256 ], "geometry": { "type": "Polygon", "coordinates": [ [ [ 605.29736842105297, -520.24736842105256 ], [ 605.29736842105297, -553.07368421052627 ], [ 772.41315789473708, -553.07368421052627 ], [ 772.41315789473708, -520.24736842105256 ], [ 605.29736842105297, -520.24736842105256 ] ] ] } },
{ "type": "Feature", "properties": { "Map": "1920_4", "Label": "Windpump", "Phrase": "Windpump", "Id": 1 }, "bbox": [ 605.29736842105297, -553.07368421052627, 772.41315789473708, -520.24736842105256 ], "geometry": { "type": "Polygon", "coordinates": [ [ [ 605.29736842105297, -520.24736842105256 ], [ 605.29736842105297, -553.07368421052627 ], [ 772.41315789473708, -553.07368421052627 ], [ 772.41315789473708, -520.24736842105256 ], [ 605.29736842105297, -520.24736842105256 ] ] ] } },
{ "type": "Feature", "properties": { "Map": "1920_4", "Label": "Mayland", "Phrase": "Mayland Nursery", "Id": 1 }, "bbox": [ 59.186842105263281, -1391.6368421052632, 196.46052631578959, -1346.8736842105263 ], "geometry": { "type": "Polygon", "coordinates": [ [ [ 59.186842105263281, -1346.8736842105263 ], [ 59.186842105263281, -1391.6368421052632 ], [ 196.46052631578959, -1391.6368421052632 ], [ 196.46052631578959, -1346.8736842105263 ], [ 59.186842105263281, -1346.8736842105263 ] ] ] } },
{ "type": "Feature", "properties": { "Map": "1920_4", "Label": "Mayland", "Phrase": "Mayland Nursery", "Id": 1 }, "bbox": [ 59.186842105263281, -1391.6368421052632, 196.46052631578959, -1346.8736842105263 ], "geometry": { "type": "Polygon", "coordinates": [ [ [ 59.186842105263281, -1346.8736842105263 ], [ 59.186842105263281, -1391.6368421052632 ], [ 196.46052631578959, -1391.6368421052632 ], [ 196.46052631578959, -1346.8736842105263 ], [ 59.186842105263281, -1346.8736842105263 ] ] ] } },
{ "type": "Feature", "properties": { "Map": "1920_4", "Label": "Nursery", "Phrase": "Mayland Nursery", "Id": 2 }, "bbox": [ 62.171052631579073, -1451.3210526315791, 196.46052631578959, -1409.542105263158 ], "geometry": { "type": "Polygon", "coordinates": [ [ [ 62.171052631579073, -1409.542105263158 ], [ 62.171052631579073, -1451.3210526315791 ], [ 196.46052631578959, -1451.3210526315791 ], [ 196.46052631578959, -1409.542105263158 ], [ 62.171052631579073, -1409.542105263158 ] ] ] } },
{ "type": "Feature", "properties": { "Map": "1920_4", "Label": "Nursery", "Phrase": "Mayland Nursery", "Id": 2 }, "bbox": [ 62.171052631579073, -1451.3210526315791, 196.46052631578959, -1409.542105263158 ], "geometry": { "type": "Polygon", "coordinates": [ [ [ 62.171052631579073, -1409.542105263158 ], [ 62.171052631579073, -1451.3210526315791 ], [ 196.46052631578959, -1451.3210526315791 ], [ 196.46052631578959, -1409.542105263158 ], [ 62.171052631579073, -1409.542105263158 ] ] ] } },
{ "type": "Feature", "properties": { "Map": "1920_4", "Label": "HILL", "Phrase": "HILL ROAD", "Id": 1 }, "bbox": [ 852.98684210526346, -257.63684210526304, 897.75000000000034, -132.3 ], "geometry": { "type": "Polygon", "coordinates": [ [ [ 852.98684210526346, -132.3 ], [ 852.98684210526346, -257.63684210526304 ], [ 897.75000000000034, -257.63684210526304 ], [ 897.75000000000034, -132.3 ], [ 852.98684210526346, -132.3 ] ] ] } },
{ "type": "Feature", "properties": { "Map": "1920_4", "Label": "HILL", "Phrase": "HILL ROAD", "Id": 1 }, "bbox": [ 852.98684210526346, -257.63684210526304, 897.75000000000034, -132.3 ], "geometry": { "type": "Polygon", "coordinates": [ [ [ 852.98684210526346, -132.3 ], [ 852.98684210526346, -257.63684210526304 ], [ 897.75000000000034, -257.63684210526304 ], [ 897.75000000000034, -132.3 ], [ 852.98684210526346, -132.3 ] ] ] } },
{ "type": "Feature", "properties": { "Map": "1920_4", "Label": "ROAD", "Phrase": "HILL ROAD", "Id": 2 }, "bbox": [ 897.75000000000034, -368.05263157894728, 942.51315789473722, -272.557894736842 ], "geometry": { "type": "Polygon", "coordinates": [ [ [ 897.75000000000034, -272.557894736842 ], [ 897.75000000000034, -368.05263157894728 ], [ 942.51315789473722, -368.05263157894728 ], [ 942.51315789473722, -272.557894736842 ], [ 897.75000000000034, -272.557894736842 ] ] ] } },
{ "type": "Feature", "properties": { "Map": "1920_4", "Label": "ROAD", "Phrase": "HILL ROAD", "Id": 2 }, "bbox": [ 897.75000000000034, -368.05263157894728, 942.51315789473722, -272.557894736842 ], "geometry": { "type": "Polygon", "coordinates": [ [ [ 897.75000000000034, -272.557894736842 ], [ 897.75000000000034, -368.05263157894728 ], [ 942.51315789473722, -368.05263157894728 ], [ 942.51315789473722, -272.557894736842 ], [ 897.75000000000034, -272.557894736842 ] ] ] } },
{ "type": "Feature", "properties": { "Map": "1920_4", "Label": "Windmill", "Phrase": "Windmill", "Id": 1 }, "bbox": [ 954.45000000000039, -848.51052631578943, 1109.6289473684214, -809.71578947368425 ], "geometry": { "type": "Polygon", "coordinates": [ [ [ 954.45000000000039, -809.71578947368425 ], [ 954.45000000000039, -848.51052631578943 ], [ 1109.6289473684214, -848.51052631578943 ], [ 1109.6289473684214, -809.71578947368425 ], [ 954.45000000000039, -809.71578947368425 ] ] ] } },
{ "type": "Feature", "properties": { "Map": "1920_4", "Label": "Windmill", "Phrase": "Windmill", "Id": 1 }, "bbox": [ 954.45000000000039, -848.51052631578943, 1109.6289473684214, -809.71578947368425 ], "geometry": { "type": "Polygon", "coordinates": [ [ [ 954.45000000000039, -809.71578947368425 ], [ 954.45000000000039, -848.51052631578943 ], [ 1109.6289473684214, -848.51052631578943 ], [ 1109.6289473684214, -809.71578947368425 ], [ 954.45000000000039, -809.71578947368425 ] ] ] } },
{ "type": "Feature", "properties": { "Map": "1920_4", "Label": "Nursery", "Phrase": "Nursey", "Id": 1 }, "bbox": [ 984.29210526315831, -887.30526315789473, 1094.7078947368423, -854.47894736842102 ], "geometry": { "type": "Polygon", "coordinates": [ [ [ 984.29210526315831, -854.47894736842102 ], [ 984.29210526315831, -887.30526315789473 ], [ 1094.7078947368423, -887.30526315789473 ], [ 1094.7078947368423, -854.47894736842102 ], [ 984.29210526315831, -854.47894736842102 ] ] ] } },
{ "type": "Feature", "properties": { "Map": "1920_4", "Label": "Nursery", "Phrase": "Nursey", "Id": 1 }, "bbox": [ 984.29210526315831, -887.30526315789473, 1094.7078947368423, -854.47894736842102 ], "geometry": { "type": "Polygon", "coordinates": [ [ [ 984.29210526315831, -854.47894736842102 ], [ 984.29210526315831, -887.30526315789473 ], [ 1094.7078947368423, -887.30526315789473 ], [ 1094.7078947368423, -854.47894736842102 ], [ 984.29210526315831, -854.47894736842102 ] ] ] } },
{ "type": "Feature", "properties": { "Map": "1920_4", "Label": "Grange", "Phrase": "Grange Avenue", "Id": 1 }, "bbox": [ 981.30789473684251, -1194.6789473684212, 1064.8657894736843, -1066.3578947368421 ], "geometry": { "type": "Polygon", "coordinates": [ [ [ 981.30789473684251, -1066.3578947368421 ], [ 981.30789473684251, -1194.6789473684212 ], [ 1064.8657894736843, -1194.6789473684212 ], [ 1064.8657894736843, -1066.3578947368421 ], [ 981.30789473684251, -1066.3578947368421 ] ] ] } },
{ "type": "Feature", "properties": { "Map": "1920_4", "Label": "Grange", "Phrase": "Grange Avenue", "Id": 1 }, "bbox": [ 981.30789473684251, -1194.6789473684212, 1064.8657894736843, -1066.3578947368421 ], "geometry": { "type": "Polygon", "coordinates": [ [ [ 981.30789473684251, -1066.3578947368421 ], [ 981.30789473684251, -1194.6789473684212 ], [ 1064.8657894736843, -1194.6789473684212 ], [ 1064.8657894736843, -1066.3578947368421 ], [ 981.30789473684251, -1066.3578947368421 ] ] ] } },
{ "type": "Feature", "properties": { "Map": "1920_4", "Label": "Avenue", "Phrase": "Grange Avenue", "Id": 2 }, "bbox": [ 1061.8815789473688, -1328.9684210526316, 1148.4236842105265, -1194.6789473684212 ], "geometry": { "type": "Polygon", "coordinates": [ [ [ 1061.8815789473688, -1194.6789473684212 ], [ 1061.8815789473688, -1328.9684210526316 ], [ 1148.4236842105265, -1328.9684210526316 ], [ 1148.4236842105265, -1194.6789473684212 ], [ 1061.8815789473688, -1194.6789473684212 ] ] ] } },
{ "type": "Feature", "properties": { "Map": "1920_4", "Label": "Avenue", "Phrase": "Grange Avenue", "Id": 2 }, "bbox": [ 1061.8815789473688, -1328.9684210526316, 1148.4236842105265, -1194.6789473684212 ], "geometry": { "type": "Polygon", "coordinates": [ [ [ 1061.8815789473688, -1194.6789473684212 ], [ 1061.8815789473688, -1328.9684210526316 ], [ 1148.4236842105265, -1328.9684210526316 ], [ 1148.4236842105265, -1194.6789473684212 ], [ 1061.8815789473688, -1194.6789473684212 ] ] ] } },
{ "type": "Feature", "properties": { "Map": "1920_4", "Label": "G.P", "Phrase": "G.P", "Id": 1 }, "bbox": [ 772.41315789473708, -806.73157894736846, 826.12894736842134, -767.93684210526317 ], "geometry": { "type": "Polygon", "coordinates": [ [ [ 772.41315789473708, -767.93684210526317 ], [ 772.41315789473708, -806.73157894736846 ], [ 826.12894736842134, -806.73157894736846 ], [ 826.12894736842134, -767.93684210526317 ], [ 772.41315789473708, -767.93684210526317 ] ] ] } },
{ "type": "Feature", "properties": { "Map": "1920_4", "Label": "G.P", "Phrase": "G.P", "Id": 1 }, "bbox": [ 772.41315789473708, -806.73157894736846, 826.12894736842134, -767.93684210526317 ], "geometry": { "type": "Polygon", "coordinates": [ [ [ 772.41315789473708, -767.93684210526317 ], [ 772.41315789473708, -806.73157894736846 ], [ 826.12894736842134, -806.73157894736846 ], [ 826.12894736842134, -767.93684210526317 ], [ 772.41315789473708, -767.93684210526317 ] ] ] } },
{ "type": "Feature", "properties": { "Map": "1920_4", "Label": "B.M.", "Phrase": "B.M.42.8", "Id": 1 }, "bbox": [ 1202.1394736842108, -1334.9368421052632, 1258.839473684211, -1293.1578947368423 ], "geometry": { "type": "Polygon", "coordinates": [ [ [ 1202.1394736842108, -1293.1578947368423 ], [ 1202.1394736842108, -1334.9368421052632 ], [ 1258.839473684211, -1334.9368421052632 ], [ 1258.839473684211, -1293.1578947368423 ], [ 1202.1394736842108, -1293.1578947368423 ] ] ] } },
{ "type": "Feature", "properties": { "Map": "1920_4", "Label": "B.M.", "Phrase": "B.M.42.8", "Id": 1 }, "bbox": [ 1202.1394736842108, -1334.9368421052632, 1258.839473684211, -1293.1578947368423 ], "geometry": { "type": "Polygon", "coordinates": [ [ [ 1202.1394736842108, -1293.1578947368423 ], [ 1202.1394736842108, -1334.9368421052632 ], [ 1258.839473684211, -1334.9368421052632 ], [ 1258.839473684211, -1293.1578947368423 ], [ 1202.1394736842108, -1293.1578947368423 ] ] ] } },
{ "type": "Feature", "properties": { "Map": "1920_4", "Label": "42.8", "Phrase": "B.M.42.8", "Id": 2 }, "bbox": [ 1267.7921052631582, -1328.9684210526316, 1327.476315789474, -1296.1421052631579 ], "geometry": { "type": "Polygon", "coordinates": [ [ [ 1267.7921052631582, -1296.1421052631579 ], [ 1267.7921052631582, -1328.9684210526316 ], [ 1327.476315789474, -1328.9684210526316 ], [ 1327.476315789474, -1296.1421052631579 ], [ 1267.7921052631582, -1296.1421052631579 ] ] ] } },
{ "type": "Feature", "properties": { "Map": "1920_4", "Label": "42.8", "Phrase": "B.M.42.8", "Id": 2 }, "bbox": [ 1267.7921052631582, -1328.9684210526316, 1327.476315789474, -1296.1421052631579 ], "geometry": { "type": "Polygon", "coordinates": [ [ [ 1267.7921052631582, -1296.1421052631579 ], [ 1267.7921052631582, -1328.9684210526316 ], [ 1327.476315789474, -1328.9684210526316 ], [ 1327.476315789474, -1296.1421052631579 ], [ 1267.7921052631582, -1296.1421052631579 ] ] ] } },
{ "type": "Feature", "properties": { "Map": "1920_4", "Label": "The", "Phrase": "The Homestead", "Id": 1 }, "bbox": [ 1118.5815789473686, -1481.163157894737, 1178.2657894736844, -1442.3684210526317 ], "geometry": { "type": "Polygon", "coordinates": [ [ [ 1118.5815789473686, -1442.3684210526317 ], [ 1118.5815789473686, -1481.163157894737 ], [ 1178.2657894736844, -1481.163157894737 ], [ 1178.2657894736844, -1442.3684210526317 ], [ 1118.5815789473686, -1442.3684210526317 ] ] ] } },
{ "type": "Feature", "properties": { "Map": "1920_4", "Label": "The", "Phrase": "The Homestead", "Id": 1 }, "bbox": [ 1118.5815789473686, -1481.163157894737, 1178.2657894736844, -1442.3684210526317 ], "geometry": { "type": "Polygon", "coordinates": [ [ [ 1118.5815789473686, -1442.3684210526317 ], [ 1118.5815789473686, -1481.163157894737 ], [ 1178.2657894736844, -1481.163157894737 ], [ 1178.2657894736844, -1442.3684210526317 ], [ 1118.5815789473686, -1442.3684210526317 ] ] ] } },
{ "type": "Feature", "properties": { "Map": "1920_4", "Label": "Homestead", "Phrase": "The Homestead", "Id": 2 }, "bbox": [ 1049.9447368421056, -1522.9421052631581, 1217.06052631579, -1478.1789473684212 ], "geometry": { "type": "Polygon", "coordinates": [ [ [ 1049.9447368421056, -1478.1789473684212 ], [ 1049.9447368421056, -1522.9421052631581 ], [ 1217.06052631579, -1522.9421052631581 ], [ 1217.06052631579, -1478.1789473684212 ], [ 1049.9447368421056, -1478.1789473684212 ] ] ] } },
{ "type": "Feature", "properties": { "Map": "1920_4", "Label": "Homestead", "Phrase": "The Homestead", "Id": 2 }, "bbox": [ 1049.9447368421056, -1522.9421052631581, 1217.06052631579, -1478.1789473684212 ], "geometry": { "type": "Polygon", "coordinates": [ [ [ 1049.9447368421056, -1478.1789473684212 ], [ 1049.9447368421056, -1522.9421052631581 ], [ 1217.06052631579, -1522.9421052631581 ], [ 1217.06052631579, -1478.1789473684212 ], [ 1049.9447368421056, -1478.1789473684212 ] ] ] } },
{ "type": "Feature", "properties": { "Map": "1920_4", "Label": "B.M.", "Phrase": "B.M.13.2", "Id": 1 }, "bbox": [ 312.84473684210548, -717.20526315789471, 360.59210526315803, -687.36315789473679 ], "geometry": { "type": "Polygon", "coordinates": [ [ [ 312.84473684210548, -687.36315789473679 ], [ 312.84473684210548, -717.20526315789471 ], [ 360.59210526315803, -717.20526315789471 ], [ 360.59210526315803, -687.36315789473679 ], [ 312.84473684210548, -687.36315789473679 ] ] ] } },
{ "type": "Feature", "properties": { "Map": "1920_4", "Label": "B.M.", "Phrase": "B.M.13.2", "Id": 1 }, "bbox": [ 312.84473684210548, -717.20526315789471, 360.59210526315803, -687.36315789473679 ], "geometry": { "type": "Polygon", "coordinates": [ [ [ 312.84473684210548, -687.36315789473679 ], [ 312.84473684210548, -717.20526315789471 ], [ 360.59210526315803, -717.20526315789471 ], [ 360.59210526315803, -687.36315789473679 ], [ 312.84473684210548, -687.36315789473679 ] ] ] } },
{ "type": "Feature", "properties": { "Map": "1920_4", "Label": "13.2", "Phrase": "B.M.13.2", "Id": 2 }, "bbox": [ 363.57631578947382, -717.20526315789471, 420.27631578947387, -687.36315789473679 ], "geometry": { "type": "Polygon", "coordinates": [ [ [ 363.57631578947382, -687.36315789473679 ], [ 363.57631578947382, -717.20526315789471 ], [ 420.27631578947387, -717.20526315789471 ], [ 420.27631578947387, -687.36315789473679 ], [ 363.57631578947382, -687.36315789473679 ] ] ] } },
{ "type": "Feature", "properties": { "Map": "1920_4", "Label": "13.2", "Phrase": "B.M.13.2", "Id": 2 }, "bbox": [ 363.57631578947382, -717.20526315789471, 420.27631578947387, -687.36315789473679 ], "geometry": { "type": "Polygon", "coordinates": [ [ [ 363.57631578947382, -687.36315789473679 ], [ 363.57631578947382, -717.20526315789471 ], [ 420.27631578947387, -717.20526315789471 ], [ 420.27631578947387, -687.36315789473679 ], [ 363.57631578947382, -687.36315789473679 ] ] ] } },
{ "type": "Feature", "properties": { "Map": "1920_4", "Label": "B.M", "Phrase": "B.M.27.1", "Id": 1 }, "bbox": [ 730.634210526316, -690.34736842105258, 790.31842105263183, -654.53684210526308 ], "geometry": { "type": "Polygon", "coordinates": [ [ [ 730.634210526316, -654.53684210526308 ], [ 730.634210526316, -690.34736842105258 ], [ 790.31842105263183, -690.34736842105258 ], [ 790.31842105263183, -654.53684210526308 ], [ 730.634210526316, -654.53684210526308 ] ] ] } },
{ "type": "Feature", "properties": { "Map": "1920_4", "Label": "B.M", "Phrase": "B.M.27.1", "Id": 1 }, "bbox": [ 730.634210526316, -690.34736842105258, 790.31842105263183, -654.53684210526308 ], "geometry": { "type": "Polygon", "coordinates": [ [ [ 730.634210526316, -654.53684210526308 ], [ 730.634210526316, -690.34736842105258 ], [ 790.31842105263183, -690.34736842105258 ], [ 790.31842105263183, -654.53684210526308 ], [ 730.634210526316, -654.53684210526308 ] ] ] } },
{ "type": "Feature", "properties": { "Map": "1920_4", "Label": "27.1", "Phrase": "B.M.27.1", "Id": 2 }, "bbox": [ 793.30263157894763, -684.378947368421, 847.01842105263188, -654.53684210526308 ], "geometry": { "type": "Polygon", "coordinates": [ [ [ 793.30263157894763, -654.53684210526308 ], [ 793.30263157894763, -684.378947368421 ], [ 847.01842105263188, -684.378947368421 ], [ 847.01842105263188, -654.53684210526308 ], [ 793.30263157894763, -654.53684210526308 ] ] ] } },
{ "type": "Feature", "properties": { "Map": "1920_4", "Label": "27.1", "Phrase": "B.M.27.1", "Id": 2 }, "bbox": [ 793.30263157894763, -684.378947368421, 847.01842105263188, -654.53684210526308 ], "geometry": { "type": "Polygon", "coordinates": [ [ [ 793.30263157894763, -654.53684210526308 ], [ 793.30263157894763, -684.378947368421 ], [ 847.01842105263188, -684.378947368421 ], [ 847.01842105263188, -654.53684210526308 ], [ 793.30263157894763, -654.53684210526308 ] ] ] } },
{ "type": "Feature", "properties": { "Map": "1920_4", "Label": "B.M.", "Phrase": "B.M.27.6", "Id": 1 }, "bbox": [ 1381.1921052631583, -654.53684210526308, 1431.923684210527, -618.72631578947369 ], "geometry": { "type": "Polygon", "coordinates": [ [ [ 1381.1921052631583, -618.72631578947369 ], [ 1381.1921052631583, -654.53684210526308 ], [ 1431.923684210527, -654.53684210526308 ], [ 1431.923684210527, -618.72631578947369 ], [ 1381.1921052631583, -618.72631578947369 ] ] ] } },
{ "type": "Feature", "properties": { "Map": "1920_4", "Label": "B.M.", "Phrase": "B.M.27.6", "Id": 1 }, "bbox": [ 1381.1921052631583, -654.53684210526308, 1431.923684210527, -618.72631578947369 ], "geometry": { "type": "Polygon", "coordinates": [ [ [ 1381.1921052631583, -618.72631578947369 ], [ 1381.1921052631583, -654.53684210526308 ], [ 1431.923684210527, -654.53684210526308 ], [ 1431.923684210527, -618.72631578947369 ], [ 1381.1921052631583, -618.72631578947369 ] ] ] } },
{ "type": "Feature", "properties": { "Map": "1920_4", "Label": "27.6", "Phrase": "B.M.27.6", "Id": 2 }, "bbox": [ 1440.8763157894741, -654.53684210526308, 1500.56052631579, -618.72631578947369 ], "geometry": { "type": "Polygon", "coordinates": [ [ [ 1440.8763157894741, -618.72631578947369 ], [ 1440.8763157894741, -654.53684210526308 ], [ 1500.56052631579, -654.53684210526308 ], [ 1500.56052631579, -618.72631578947369 ], [ 1440.8763157894741, -618.72631578947369 ] ] ] } },
{ "type": "Feature", "properties": { "Map": "1920_4", "Label": "27.6", "Phrase": "B.M.27.6", "Id": 2 }, "bbox": [ 1440.8763157894741, -654.53684210526308, 1500.56052631579, -618.72631578947369 ], "geometry": { "type": "Polygon", "coordinates": [ [ [ 1440.8763157894741, -618.72631578947369 ], [ 1440.8763157894741, -654.53684210526308 ], [ 1500.56052631579, -654.53684210526308 ], [ 1500.56052631579, -618.72631578947369 ], [ 1440.8763157894741, -618.72631578947369 ] ] ] } }
]
}
